{
	"textures": [
		{
			"image": "TopBar_Chi_sprite.png",
			"format": "RGBA8888",
			"size": {
				"w": 1806,
				"h": 1720
			},
			"scale": 1,
			"frames": [
				{
					"filename": "frame_01.png",
					"rotated": false,
					"trimmed": false,
					"sourceSize": {
						"w": 600,
						"h": 213
					},
					"spriteSourceSize": {
						"x": 0,
						"y": 0,
						"w": 600,
						"h": 213
					},
					"frame": {
						"x": 1,
						"y": 1,
						"w": 600,
						"h": 213
					}
				},
				{
					"filename": "frame_02.png",
					"rotated": false,
					"trimmed": false,
					"sourceSize": {
						"w": 600,
						"h": 213
					},
					"spriteSourceSize": {
						"x": 0,
						"y": 0,
						"w": 600,
						"h": 213
					},
					"frame": {
						"x": 603,
						"y": 1,
						"w": 600,
						"h": 213
					}
				},
				{
					"filename": "frame_03.png",
					"rotated": false,
					"trimmed": false,
					"sourceSize": {
						"w": 600,
						"h": 213
					},
					"spriteSourceSize": {
						"x": 0,
						"y": 0,
						"w": 600,
						"h": 213
					},
					"frame": {
						"x": 1205,
						"y": 1,
						"w": 600,
						"h": 213
					}
				},
				{
					"filename": "frame_04.png",
					"rotated": false,
					"trimmed": false,
					"sourceSize": {
						"w": 600,
						"h": 213
					},
					"spriteSourceSize": {
						"x": 0,
						"y": 0,
						"w": 600,
						"h": 213
					},
					"frame": {
						"x": 1,
						"y": 216,
						"w": 600,
						"h": 213
					}
				},
				{
					"filename": "frame_05.png",
					"rotated": false,
					"trimmed": false,
					"sourceSize": {
						"w": 600,
						"h": 213
					},
					"spriteSourceSize": {
						"x": 0,
						"y": 0,
						"w": 600,
						"h": 213
					},
					"frame": {
						"x": 603,
						"y": 216,
						"w": 600,
						"h": 213
					}
				},
				{
					"filename": "frame_06.png",
					"rotated": false,
					"trimmed": false,
					"sourceSize": {
						"w": 600,
						"h": 213
					},
					"spriteSourceSize": {
						"x": 0,
						"y": 0,
						"w": 600,
						"h": 213
					},
					"frame": {
						"x": 1205,
						"y": 216,
						"w": 600,
						"h": 213
					}
				},
				{
					"filename": "frame_07.png",
					"rotated": false,
					"trimmed": false,
					"sourceSize": {
						"w": 600,
						"h": 213
					},
					"spriteSourceSize": {
						"x": 0,
						"y": 0,
						"w": 600,
						"h": 213
					},
					"frame": {
						"x": 1,
						"y": 431,
						"w": 600,
						"h": 213
					}
				},
				{
					"filename": "frame_08.png",
					"rotated": false,
					"trimmed": false,
					"sourceSize": {
						"w": 600,
						"h": 213
					},
					"spriteSourceSize": {
						"x": 0,
						"y": 0,
						"w": 600,
						"h": 213
					},
					"frame": {
						"x": 603,
						"y": 431,
						"w": 600,
						"h": 213
					}
				},
				{
					"filename": "frame_09.png",
					"rotated": false,
					"trimmed": false,
					"sourceSize": {
						"w": 600,
						"h": 213
					},
					"spriteSourceSize": {
						"x": 0,
						"y": 0,
						"w": 600,
						"h": 213
					},
					"frame": {
						"x": 1205,
						"y": 431,
						"w": 600,
						"h": 213
					}
				},
				{
					"filename": "frame_10.png",
					"rotated": false,
					"trimmed": false,
					"sourceSize": {
						"w": 600,
						"h": 213
					},
					"spriteSourceSize": {
						"x": 0,
						"y": 0,
						"w": 600,
						"h": 213
					},
					"frame": {
						"x": 1,
						"y": 646,
						"w": 600,
						"h": 213
					}
				},
				{
					"filename": "frame_11.png",
					"rotated": false,
					"trimmed": false,
					"sourceSize": {
						"w": 600,
						"h": 213
					},
					"spriteSourceSize": {
						"x": 0,
						"y": 0,
						"w": 600,
						"h": 213
					},
					"frame": {
						"x": 603,
						"y": 646,
						"w": 600,
						"h": 213
					}
				},
				{
					"filename": "frame_12.png",
					"rotated": false,
					"trimmed": false,
					"sourceSize": {
						"w": 600,
						"h": 213
					},
					"spriteSourceSize": {
						"x": 0,
						"y": 0,
						"w": 600,
						"h": 213
					},
					"frame": {
						"x": 1205,
						"y": 646,
						"w": 600,
						"h": 213
					}
				},
				{
					"filename": "frame_13.png",
					"rotated": false,
					"trimmed": false,
					"sourceSize": {
						"w": 600,
						"h": 213
					},
					"spriteSourceSize": {
						"x": 0,
						"y": 0,
						"w": 600,
						"h": 213
					},
					"frame": {
						"x": 1,
						"y": 861,
						"w": 600,
						"h": 213
					}
				},
				{
					"filename": "frame_14.png",
					"rotated": false,
					"trimmed": false,
					"sourceSize": {
						"w": 600,
						"h": 213
					},
					"spriteSourceSize": {
						"x": 0,
						"y": 0,
						"w": 600,
						"h": 213
					},
					"frame": {
						"x": 603,
						"y": 861,
						"w": 600,
						"h": 213
					}
				},
				{
					"filename": "frame_15.png",
					"rotated": false,
					"trimmed": false,
					"sourceSize": {
						"w": 600,
						"h": 213
					},
					"spriteSourceSize": {
						"x": 0,
						"y": 0,
						"w": 600,
						"h": 213
					},
					"frame": {
						"x": 1205,
						"y": 861,
						"w": 600,
						"h": 213
					}
				},
				{
					"filename": "frame_16.png",
					"rotated": false,
					"trimmed": false,
					"sourceSize": {
						"w": 600,
						"h": 213
					},
					"spriteSourceSize": {
						"x": 0,
						"y": 0,
						"w": 600,
						"h": 213
					},
					"frame": {
						"x": 1,
						"y": 1076,
						"w": 600,
						"h": 213
					}
				},
				{
					"filename": "frame_17.png",
					"rotated": false,
					"trimmed": false,
					"sourceSize": {
						"w": 600,
						"h": 213
					},
					"spriteSourceSize": {
						"x": 0,
						"y": 0,
						"w": 600,
						"h": 213
					},
					"frame": {
						"x": 603,
						"y": 1076,
						"w": 600,
						"h": 213
					}
				},
				{
					"filename": "frame_18.png",
					"rotated": false,
					"trimmed": false,
					"sourceSize": {
						"w": 600,
						"h": 213
					},
					"spriteSourceSize": {
						"x": 0,
						"y": 0,
						"w": 600,
						"h": 213
					},
					"frame": {
						"x": 1205,
						"y": 1076,
						"w": 600,
						"h": 213
					}
				},
				{
					"filename": "frame_19.png",
					"rotated": false,
					"trimmed": false,
					"sourceSize": {
						"w": 600,
						"h": 213
					},
					"spriteSourceSize": {
						"x": 0,
						"y": 0,
						"w": 600,
						"h": 213
					},
					"frame": {
						"x": 1,
						"y": 1291,
						"w": 600,
						"h": 213
					}
				},
				{
					"filename": "frame_20.png",
					"rotated": false,
					"trimmed": false,
					"sourceSize": {
						"w": 600,
						"h": 213
					},
					"spriteSourceSize": {
						"x": 0,
						"y": 0,
						"w": 600,
						"h": 213
					},
					"frame": {
						"x": 603,
						"y": 1291,
						"w": 600,
						"h": 213
					}
				},
				{
					"filename": "frame_21.png",
					"rotated": false,
					"trimmed": false,
					"sourceSize": {
						"w": 600,
						"h": 213
					},
					"spriteSourceSize": {
						"x": 0,
						"y": 0,
						"w": 600,
						"h": 213
					},
					"frame": {
						"x": 1205,
						"y": 1291,
						"w": 600,
						"h": 213
					}
				},
				{
					"filename": "frame_22.png",
					"rotated": false,
					"trimmed": false,
					"sourceSize": {
						"w": 600,
						"h": 213
					},
					"spriteSourceSize": {
						"x": 0,
						"y": 0,
						"w": 600,
						"h": 213
					},
					"frame": {
						"x": 1,
						"y": 1506,
						"w": 600,
						"h": 213
					}
				},
				{
					"filename": "frame_23.png",
					"rotated": false,
					"trimmed": false,
					"sourceSize": {
						"w": 600,
						"h": 213
					},
					"spriteSourceSize": {
						"x": 0,
						"y": 0,
						"w": 600,
						"h": 213
					},
					"frame": {
						"x": 603,
						"y": 1506,
						"w": 600,
						"h": 213
					}
				},
				{
					"filename": "frame_24.png",
					"rotated": false,
					"trimmed": false,
					"sourceSize": {
						"w": 600,
						"h": 213
					},
					"spriteSourceSize": {
						"x": 0,
						"y": 0,
						"w": 600,
						"h": 213
					},
					"frame": {
						"x": 1205,
						"y": 1506,
						"w": 600,
						"h": 213
					}
				}
			]
		}
	],
	"meta": {
		"app": "https://www.codeandweb.com/texturepacker",
		"version": "3.0",
		"smartupdate": "$TexturePacker:SmartUpdate:34d6fd4b7a3b2ecc999c764f141b4991:a687fb58e7cc1d7bbc5c9d0499019c43:e85661b8745e92d0df133c4dad24ba05$"
	}
}
